…
## 2 Step, What is mean total number of steps taken per day?

### 2.1 Calculate the total number of steps taken per day


```r
stepsPerDay <- activity %>%
        group_by(date) %>%
        summarize(Nofsteps = sum(steps, na.rm = TRUE)) 

stepsPerDay
```

```
## # A tibble: 61 x 2
##    date       Nofsteps
##    <date>        <int>
##  1 2012-10-01        0
##  2 2012-10-02      126
##  3 2012-10-03    11352
##  4 2012-10-04    12116
##  5 2012-10-05    13294
##  6 2012-10-06    15420
##  7 2012-10-07    11015
##  8 2012-10-08        0
##  9 2012-10-09    12811
## 10 2012-10-10     9900
## # ... with 51 more rows
```
…
### 3.1 Make a time series plot (i.e. type = “l”|) of the 5-minute interval (x-axis) and the average number of steps taken, averaged across all days (y-axis).


```r
tablestepsInt <- activity %>%
        group_by(interval) %>%
        summarize(meansteps = mean(steps, na.rm = TRUE)) 


tablestepsInt
```

```
## # A tibble: 288 x 2
##    interval meansteps
##       <int>     <dbl>
##  1        0    1.72  
##  2        5    0.340 
##  3       10    0.132 
##  4       15    0.151 
##  5       20    0.0755
##  6       25    2.09  
##  7       30    0.528 
##  8       35    0.868 
##  9       40    0     
## 10       45    1.47  
## # ... with 278 more rows
```
…
### 4.4 Make a histogram of the total number of steps taken each day and Calculate and report the mean and median total number of steps taken per day. Do these values differ from the estimates from the first part of the assignment? What is the impact of imputing missing data on the estimates of the total daily number of steps?



```r
stepsPerDay <- OrigFilled %>%
        group_by(date) %>%
        summarize(Nofsteps = sum(steps, na.rm = TRUE)) 

stepsPerDay
```

```
## # A tibble: 61 x 2
##    date       Nofsteps
##    <date>        <dbl>
##  1 2012-10-01   10766.
##  2 2012-10-02     126 
##  3 2012-10-03   11352 
##  4 2012-10-04   12116 
##  5 2012-10-05   13294 
##  6 2012-10-06   15420 
##  7 2012-10-07   11015 
##  8 2012-10-08   10766.
##  9 2012-10-09   12811 
## 10 2012-10-10    9900 
## # ... with 51 more rows
```
…
